Chapter 3 Data exploration | Wildlife Presence Using Trail Cameras
…
3.2.3 Sites reused

We want to know how many and which sites were reused.

reused <- site %>% 
  left_join(deployment, by = "site_id") %>% # join deployment table to site using site_id
  group_by(site_id) %>% # group by site
  tally %>% # calculate number of times each site is used
  filter(n > 1) # include sites with more than one deployment

n_reused <- tally(reused) # calculate number of sites reused

reused

## # A tibble: 40 × 2
##    site_id                                           n
##    <chr>                                         <int>
##  1 DRPSS1                                            3
##  2 DSPSS1                                            3
##  3 IRPSS1                                            5
##  4 JBPSS1                                            4
##  5 LTPSS1                                            3
##  6 LWPSS1                                            3
##  7 MGPSS1                                            4
##  8 NRPSS1                                            3
##  9 OR_Forest_Oregon_State_University_22_ORSNAP07     2
## 10 Oregon_Forest_Lesmeister_21_loc_01                4
## # ℹ 30 more rows
…
